ReadSerial.vcd
$date
2025-12-09T22:56+0000
$end
$version
0.2
$end
$comment

$end
$timescale 1ns  $end
$scope module ReadSerial $end
 $var wire 1 & io_rxd $end
 $var wire 1 ' shiftRegister $end
 $var wire 1 + io_reset $end
 $var wire 1 0 counter $end
 $var wire 1 1 clock $end
 $var wire 1 2 controller $end
 $var wire 8 5 io_data $end
 $var wire 1 6 io_valid $end
 $var wire 1 > reset $end
  $scope module controller $end
   $var wire 1 " clock $end
   $var wire 1 # io_valid $end
   $var wire 1 ) io_rxd $end
   $var wire 1 , io_clearRegs $end
   $var wire 1 - reset $end
   $var wire 1 4 io_shiftEn $end
   $var wire 1 8 io_bitDone $end
   $var wire 2 9 state $end
   $var wire 1 ; io_resetLine $end
   $var wire 1 < io_countEn $end
  $upscope $end
  $scope module counter $end
   $var wire 1 ! reset $end
   $var wire 3 * cnt $end
   $var wire 1 . clock $end
   $var wire 1 3 io_done $end
   $var wire 1 : io_enable $end
   $var wire 1 @ io_clear $end
  $upscope $end
  $scope module shiftRegister $end
   $var wire 1 $ io_serialIn $end
   $var wire 1 % clock $end
   $var wire 1 ( io_shiftEn $end
   $var wire 1 / io_clear $end
   $var wire 1 7 reset $end
   $var wire 8 = reg $end
   $var wire 8 ? io_dataOut $end
  $upscope $end
$upscope $end
$enddefinitions $end
$dumpvars
0%
0;
0&
0<
b000 *
0'
0>
06
0!
07
0"
08
0#
b00 9
0:
02
03
b00000000 =
04
0-
b00000000 ?
0.
0/
00
0(
01
0)
0@
0+
b00000000 5
0,
0$
$end
#0
1!
1-
1@
17
1/
1>
1,
#1
1%
1"
11
1.
#6
0-
0%
0.
1&
07
0/
0>
1)
0!
0"
01
0@
1$
0,
#11
1%
1"
11
1.
#16
0%
0"
01
0.
1@
0&
0$
1/
1,
0)
#21
1<
1%
1"
11
1.
0@
14
b01 9
1:
1(
0/
0,
#26
0%
0"
01
0.
1&
1$
1)
#31
b00000001 ?
1%
1"
11
1.
b00000001 5
b001 *
b00000001 =
#36
0%
0"
01
0.
0&
0$
0)
#41
b00000010 ?
1%
1"
11
1.
b00000010 5
b010 *
b00000010 =
#46
0%
0"
01
0.
1&
1$
1)
#51
b00000101 ?
1%
1"
11
1.
b00000101 5
b011 *
b00000101 =
#56
0%
0"
01
0.
0&
0$
0)
#61
b00001010 ?
1%
1"
11
1.
b00001010 5
b100 *
b00001010 =
#66
0%
0"
01
0.
#71
b00010100 ?
1%
1"
11
1.
b00010100 5
b101 *
b00010100 =
#76
0%
0"
01
0.
1&
1$
1)
#81
b00101001 ?
1%
1"
11
1.
b00101001 5
b110 *
b00101001 =
#86
0%
0"
01
0.
0&
0$
0)
#91
13
b01010010 ?
1%
1"
11
1.
18
b01010010 5
b111 *
b01010010 =
#96
0%
0"
01
0.
1&
1$
1)
#101
03
0<
1%
04
1.
b10100101 5
16
b10100101 =
0(
b10100101 ?
1"
11
08
1#
b000 *
b10 9
0:
#106
0%
0"
01
0.
#111
1%
1"
11
1.
0#
b00 9
06
#116
0%
0"
01
0.
#121
1%
1"
11
1.
#126
0%
0"
01
0.
#131
1%
1"
11
1.
#136
0%
0"
01
0.
#141
1%
1"
11
1.
#146
0%
0"
01
0.
#151
1%
1"
11
1.
#156
0%
0"
01
0.
1@
0&
0$
1/
1,
0)
#161
1<
1%
14
1.
b00000000 5
b00000000 =
1(
0/
b00000000 ?
1"
11
0@
b01 9
1:
0,
#166
0%
0"
01
0.
#171
1%
1"
11
1.
b001 *
#176
0%
0"
01
0.
#181
1%
1"
11
1.
b010 *
#186
0%
0"
01
0.
1&
1$
1)
#191
b00000001 ?
1%
1"
11
1.
b00000001 5
b011 *
b00000001 =
#196
0%
0"
01
0.
#201
b00000011 ?
1%
1"
11
1.
b00000011 5
b100 *
b00000011 =
#206
0%
0"
01
0.
#211
b00000111 ?
1%
1"
11
1.
b00000111 5
b101 *
b00000111 =
#216
0%
0"
01
0.
#221
b00001111 ?
1%
1"
11
1.
b00001111 5
b110 *
b00001111 =
#226
0%
0"
01
0.
0&
0$
0)
#231
13
b00011110 ?
1%
1"
11
1.
18
b00011110 5
b111 *
b00011110 =
#236
0%
0"
01
0.
#241
03
0<
1%
04
1.
b00111100 5
16
b00111100 =
0(
b00111100 ?
1"
11
08
1#
b000 *
b10 9
0:
#246
0%
0"
01
0.
1&
1$
1)
#251
1%
1"
11
1.
0#
b00 9
06
#256
0%
0"
01
0.
#261
1%
1"
11
1.
#266
0%
0"
01
0.
#271
1%
1"
11
1.
#276
0%
0"
01
0.
#281
1%
1"
11
1.
#286
0%
0"
01
0.
#291
1%
1"
11
1.
#296
0%
0"
01
0.
1@
0&
0$
1/
1,
0)
#301
1<
1%
14
1.
b00000000 5
b00000000 =
1(
0/
b00000000 ?
1"
11
0@
b01 9
1:
0,
#306
0%
0"
01
0.
1&
1$
1)
#311
b00000001 ?
1%
1"
11
1.
b00000001 5
b001 *
b00000001 =
#316
0%
0"
01
0.
#321
b00000011 ?
1%
1"
11
1.
b00000011 5
b010 *
b00000011 =
#326
0%
0"
01
0.
#331
b00000111 ?
1%
1"
11
1.
b00000111 5
b011 *
b00000111 =
#336
0%
0"
01
0.
#341
b00001111 ?
1%
1"
11
1.
b00001111 5
b100 *
b00001111 =
#346
0%
0"
01
0.
0&
0$
0)
#351
b00011110 ?
1%
1"
11
1.
b00011110 5
b101 *
b00011110 =
#356
0%
0"
01
0.
#361
b00111100 ?
1%
1"
11
1.
b00111100 5
b110 *
b00111100 =
#366
0%
0"
01
0.
#371
13
b01111000 ?
1%
1"
11
1.
18
b01111000 5
b111 *
b01111000 =
#376
0%
0"
01
0.
#381
03
0<
1%
04
1.
b11110000 5
16
b11110000 =
0(
b11110000 ?
1"
11
08
1#
b000 *
b10 9
0:
#386
0%
0"
01
0.
1&
1$
1)
#391
1%
1"
11
1.
0#
b00 9
06
#396
0%
0"
01
0.
#401
1%
1"
11
1.
#406
0%
0"
01
0.
#411
1%
1"
11
1.
#416
0%
0"
01
0.
#421
1%
1"
11
1.
#426
0%
0"
01
0.
#431
1%
1"
11
1.
#436
0%
0"
01
0.
1@
0&
0$
1/
1,
0)
#441
1<
1%
14
1.
b00000000 5
b00000000 =
1(
0/
b00000000 ?
1"
11
0@
b01 9
1:
0,
#446
0%
0"
01
0.
1&
1$
1)
#451
b00000001 ?
1%
1"
11
1.
b00000001 5
b001 *
b00000001 =
#456
0%
0"
01
0.
0&
0$
0)
#461
b00000010 ?
1%
1"
11
1.
b00000010 5
b010 *
b00000010 =
#466
0%
0"
01
0.
1&
1$
1)
#471
b00000101 ?
1%
1"
11
1.
b00000101 5
b011 *
b00000101 =
#476
0%
0"
01
0.
0&
0$
0)
#481
b00001010 ?
1%
1"
11
1.
b00001010 5
b100 *
b00001010 =
#486
0%
0"
01
0.
1@
1+
1/
1,
1;
#491
b00000000 ?
0<
1%
1"
11
1.
04
b00000000 5
b000 *
b00 9
b00000000 =
0:
0(
#496
0%
0"
01
0.
0@
1&
1$
0+
0/
0,
0;
1)
#501
1%
1"
11
1.
#506
0%
0"
01
0.
#511
1%
1"
11
1.
#516
0%
0"
01
0.
1@
0&
0$
1/
1,
0)
#521
1<
1%
1"
11
1.
0@
14
b01 9
1:
1(
0/
0,
#526
0%
0"
01
0.
#531
1%
1"
11
1.
b001 *
#536
0%
0"
01
0.
1&
1$
1)
#541
b00000001 ?
1%
1"
11
1.
b00000001 5
b010 *
b00000001 =
#546
0%
0"
01
0.
0&
0$
0)
#551
b00000010 ?
1%
1"
11
1.
b00000010 5
b011 *
b00000010 =
#556
0%
0"
01
0.
1&
1$
1)
#561
b00000101 ?
1%
1"
11
1.
b00000101 5
b100 *
b00000101 =
#566
0%
0"
01
0.
0&
0$
0)
#571
b00001010 ?
1%
1"
11
1.
b00001010 5
b101 *
b00001010 =
#576
0%
0"
01
0.
1&
1$
1)
#581
b00010101 ?
1%
1"
11
1.
b00010101 5
b110 *
b00010101 =
#586
0%
0"
01
0.
0&
0$
0)
#591
13
b00101010 ?
1%
1"
11
1.
18
b00101010 5
b111 *
b00101010 =
#596
0%
0"
01
0.
1&
1$
1)
#601
03
0<
1%
04
1.
b01010101 5
16
b01010101 =
0(
b01010101 ?
1"
11
08
1#
b000 *
b10 9
0:
#606
0%
0"
01
0.
#611
1%
1"
11
1.
0#
b00 9
06
#616
0%
0"
01
0.
#621
1%
1"
11
1.
#626
0%
0"
01
0.
#631
1%
1"
11
1.
#636
0%
0"
01
0.
#641
1%
1"
11
1.
#646
0%
0"
01
0.
0&
